sim/tb_lfsr_fibonacci.vcd
$date
	Fri Mar 20 08:57:13 2026
$end
$version
	Icarus Verilog
$end
$timescale
	1ps
$end
$scope module tb_lfsr_fibonacci $end
$var wire 4 ! lfsr_out [3:0] $end
$var wire 1 " feedback_bit $end
$var parameter 37 # MAX_LEN $end
$var parameter 4 $ SEED $end
$var parameter 4 % TAPS $end
$var parameter 32 & WIDTH $end
$var reg 1 ' clk $end
$var reg 1 ( en $end
$var reg 1 ) rst $end
$var reg 16 * state_seen [15:0] $end
$var integer 32 + cycle_count [31:0] $end
$var integer 32 , fail_count [31:0] $end
$var integer 32 - pass_count [31:0] $end
$var integer 32 . total_tests [31:0] $end
$var integer 32 / unique_count [31:0] $end
$scope module dut $end
$var wire 1 ' clk $end
$var wire 1 ( en $end
$var wire 4 0 lfsr_out [3:0] $end
$var wire 1 ) rst $end
$var parameter 4 1 SEED $end
$var parameter 4 2 TAPS $end
$var parameter 32 3 WIDTH $end
$var reg 1 " feedback_bit $end
$var reg 4 4 lfsr_reg [3:0] $end
$upscope $end
$scope begin $ivl_for_loop0 $end
$var integer 32 5 i [31:0] $end
$upscope $end
$scope begin $unm_blk_16 $end
$var reg 4 6 held_state [3:0] $end
$upscope $end
$scope task check $end
$var reg 4 7 actual [3:0] $end
$var reg 4 8 expected [3:0] $end
$upscope $end
$upscope $end
$enddefinitions $end
$comment Show the parameter values. $end
$dumpall
b100 3
b1001 2
b1111 1
b100 &
b1001 %
b1111 $
b1111 #
$end
#0
$dumpvars
bx 8
bx 7
bx 6
b0 5
bx 4
bx 0
b0 /
b0 .
b0 -
b0 ,
b0 +
b0 *
1)
0(
0'
x"
bx !
$end
#5000
0"
b1111 !
b1111 0
b1111 4
1'
#10000
0'
#15000
1(
0)
1'
#20000
b1 /
b1000000000000000 *
b1 -
b1 .
b1111 8
b1111 7
0'
#25000
1"
b111 !
b111 0
b111 4
1'
#30000
b1 5
b10 /
b1000000010000000 *
b1 +
0'
#35000
0"
b1011 !
b1011 0
b1011 4
1'
#40000
b10 5
b11 /
b1000100010000000 *
b10 +
0'
#45000
1"
b101 !
b101 0
b101 4
1'
#50000
b11 5
b100 /
b1000100010100000 *
b11 +
0'
#55000
b1010 !
b1010 0
b1010 4
1'
#60000
b100 5
b101 /
b1000110010100000 *
b100 +
0'
#65000
0"
b1101 !
b1101 0
b1101 4
1'
#70000
b101 5
b110 /
b1010110010100000 *
b101 +
0'
#75000
b110 !
b110 0
b110 4
1'
#80000
b110 5
b111 /
b1010110011100000 *
b110 +
0'
#85000
1"
b11 !
b11 0
b11 4
1'
#90000
b111 5
b1000 /
b1010110011101000 *
b111 +
0'
#95000
0"
b1001 !
b1001 0
b1001 4
1'
#100000
b1000 5
b1001 /
b1010111011101000 *
b1000 +
0'
#105000
b100 !
b100 0
b100 4
1'
#110000
b1001 5
b1010 /
b1010111011111000 *
b1001 +
0'
#115000
b10 !
b10 0
b10 4
1'
#120000
b1010 5
b1011 /
b1010111011111100 *
b1010 +
0'
#125000
1"
b1 !
b1 0
b1 4
1'
#130000
b1011 5
b1100 /
b1010111011111110 *
b1011 +
0'
#135000
b1000 !
b1000 0
b1000 4
1'
#140000
b1100 5
b1101 /
b1010111111111110 *
b1100 +
0'
#145000
b1100 !
b1100 0
b1100 4
1'
#150000
b1101 5
b1110 /
b1011111111111110 *
b1101 +
0'
#155000
b1110 !
b1110 0
b1110 4
1'
#160000
b1110 5
b1111 /
b1111111111111110 *
b1110 +
0'
#165000
0"
b1111 !
b1111 0
b1111 4
1'
#170000
0(
b100 -
b100 .
b1111 5
b1111 +
0'
#175000
1'
#180000
b1111 6
0'
#185000
1'
#190000
b101 -
b101 .
0'
