sim/tb_lfsr_galois.vcd
$date
	Fri Mar 20 08:57:13 2026
$end
$version
	Icarus Verilog
$end
$timescale
	1ps
$end
$scope module tb_lfsr_galois $end
$var wire 4 ! lfsr_out [3:0] $end
$var wire 1 " feedback_bit $end
$var parameter 37 # MAX_LEN $end
$var parameter 4 $ SEED $end
$var parameter 4 % TAPS $end
$var parameter 32 & WIDTH $end
$var reg 1 ' clk $end
$var reg 1 ( en $end
$var reg 1 ) rst $end
$var reg 16 * state_seen [15:0] $end
$var integer 32 + fail_count [31:0] $end
$var integer 32 , pass_count [31:0] $end
$var integer 32 - total_tests [31:0] $end
$var integer 32 . unique_count [31:0] $end
$scope module dut $end
$var wire 1 ' clk $end
$var wire 1 ( en $end
$var wire 4 / lfsr_out [3:0] $end
$var wire 1 ) rst $end
$var wire 1 " feedback_bit $end
$var parameter 4 0 SEED $end
$var parameter 4 1 TAPS $end
$var parameter 32 2 WIDTH $end
$var reg 4 3 lfsr_reg [3:0] $end
$scope begin $ivl_for_loop0 $end
$var integer 32 4 i [31:0] $end
$upscope $end
$upscope $end
$scope begin $ivl_for_loop1 $end
$var integer 32 5 i [31:0] $end
$upscope $end
$scope begin $unm_blk_16 $end
$var reg 4 6 held_state [3:0] $end
$upscope $end
$scope task check $end
$var reg 4 7 actual [3:0] $end
$var reg 4 8 expected [3:0] $end
$upscope $end
$upscope $end
$enddefinitions $end
$comment Show the parameter values. $end
$dumpall
b100 2
b1001 1
b1111 0
b100 &
b1001 %
b1111 $
b1111 #
$end
#0
$dumpvars
bx 8
bx 7
bx 6
b0 5
b0 4
bx 3
bx /
b0 .
b0 -
b0 ,
b0 +
b0 *
1)
0(
0'
x"
bx !
$end
#5000
1"
b1111 !
b1111 /
b1111 3
1'
#10000
0'
#15000
1(
0)
1'
#20000
b1 .
b1000000000000000 *
b1 ,
b1 -
b1111 8
b1111 7
0'
#25000
b1011 !
b1011 /
b1011 3
b0 4
1'
#30000
b1 5
b10 .
b1000100000000000 *
0'
#35000
b1001 !
b1001 /
b1001 3
b0 4
1'
#40000
b10 5
b11 .
b1000101000000000 *
0'
#45000
0"
b1000 !
b1000 /
b1000 3
b0 4
1'
#50000
b11 5
b100 .
b1000101100000000 *
0'
#55000
b100 !
b100 /
b100 3
b0 4
1'
#60000
b100 5
b101 .
b1000101100010000 *
0'
#65000
b10 !
b10 /
b10 3
b0 4
1'
#70000
b101 5
b110 .
b1000101100010100 *
0'
#75000
1"
b1 !
b1 /
b1 3
b0 4
1'
#80000
b110 5
b111 .
b1000101100010110 *
0'
#85000
0"
b1100 !
b1100 /
b1100 3
b0 4
1'
#90000
b111 5
b1000 .
b1001101100010110 *
0'
#95000
b110 !
b110 /
b110 3
b0 4
1'
#100000
b1000 5
b1001 .
b1001101101010110 *
0'
#105000
1"
b11 !
b11 /
b11 3
b0 4
1'
#110000
b1001 5
b1010 .
b1001101101011110 *
0'
#115000
b1101 !
b1101 /
b1101 3
b0 4
1'
#120000
b1010 5
b1011 .
b1011101101011110 *
0'
#125000
0"
b1010 !
b1010 /
b1010 3
b0 4
1'
#130000
b1011 5
b1100 .
b1011111101011110 *
0'
#135000
1"
b101 !
b101 /
b101 3
b0 4
1'
#140000
b1100 5
b1101 .
b1011111101111110 *
0'
#145000
0"
b1110 !
b1110 /
b1110 3
b0 4
1'
#150000
b1101 5
b1110 .
b1111111101111110 *
0'
#155000
1"
b111 !
b111 /
b111 3
b0 4
1'
#160000
b1110 5
b1111 .
b1111111111111110 *
0'
#165000
b1111 !
b1111 /
b1111 3
b0 4
1'
#170000
0(
b100 ,
b100 -
b1111 5
0'
#175000
1'
#180000
b1111 6
0'
#185000
1'
#190000
b101 ,
b101 -
0'
