sim/tb_lfsr_prbs.vcd
$date
	Fri Mar 20 08:57:13 2026
$end
$version
	Icarus Verilog
$end
$timescale
	1ps
$end
$scope module tb_lfsr_prbs $end
$var wire 1 ! prbs_out $end
$var wire 7 " lfsr_state [6:0] $end
$var parameter 40 # MAX_LEN $end
$var parameter 32 $ PRBS_TYPE $end
$var parameter 32 % PRBS_WIDTH $end
$var reg 1 & clk $end
$var reg 1 ' en $end
$var reg 7 ( initial_state [6:0] $end
$var reg 1 ) rst $end
$var reg 128 * state_seen [127:0] $end
$var integer 32 + fail_count [31:0] $end
$var integer 32 , ones_count [31:0] $end
$var integer 32 - pass_count [31:0] $end
$var integer 32 . total_tests [31:0] $end
$var integer 32 / unique_count [31:0] $end
$scope module dut $end
$var wire 1 & clk $end
$var wire 1 ' en $end
$var wire 1 ) rst $end
$var wire 1 ! prbs_out $end
$var wire 7 0 lfsr_state [6:0] $end
$var wire 1 1 feedback $end
$var parameter 7 2 PRBS_TAPS $end
$var parameter 32 3 PRBS_TYPE $end
$var parameter 32 4 PRBS_WIDTH $end
$scope module u_lfsr $end
$var wire 1 & clk $end
$var wire 1 ' en $end
$var wire 1 ) rst $end
$var wire 7 5 lfsr_out [6:0] $end
$var parameter 7 6 SEED $end
$var parameter 7 7 TAPS $end
$var parameter 32 8 WIDTH $end
$var reg 1 1 feedback_bit $end
$var reg 7 9 lfsr_reg [6:0] $end
$upscope $end
$upscope $end
$scope begin $ivl_for_loop0 $end
$var integer 32 : i [31:0] $end
$upscope $end
$scope task check_bit $end
$var reg 1 ; actual $end
$var reg 1 < expected $end
$upscope $end
$scope task check_int $end
$var integer 32 = actual [31:0] $end
$var integer 32 > expected [31:0] $end
$upscope $end
$upscope $end
$enddefinitions $end
$comment Show the parameter values. $end
$dumpall
b111 8
b1000001 7
b1111111 6
b111 4
b111 3
b1000001 2
b111 %
b111 $
b1111111 #
$end
#0
$dumpvars
bx >
bx =
x<
x;
b0 :
bx 9
bx 5
x1
bx 0
b0 /
b0 .
b0 -
b0 ,
b0 +
b0 *
1)
bx (
0'
0&
bx "
x!
$end
#5000
01
1!
b1111111 "
b1111111 0
b1111111 5
b1111111 9
1&
#10000
0&
#15000
1'
0)
1&
#20000
b1 /
b10000000000000000000000000000000000000000000000000000000000000000000000000000000000000000000000000000000000000000000000000000000 *
b1 -
b1 .
b1111111 (
0&
#25000
11
b111111 "
b111111 0
b111111 5
b111111 9
1&
#30000
b1 :
b10 /
b10000000000000000000000000000000000000000000000000000000000000001000000000000000000000000000000000000000000000000000000000000000 *
b1 ,
0&
#35000
01
b1011111 "
b1011111 0
b1011111 5
b1011111 9
1&
#40000
b10 :
b11 /
b10000000000000000000000000000000100000000000000000000000000000001000000000000000000000000000000000000000000000000000000000000000 *
b10 ,
0&
#45000
11
b101111 "
b101111 0
b101111 5
b101111 9
1&
#50000
b11 :
b100 /
b10000000000000000000000000000000100000000000000000000000000000001000000000000000100000000000000000000000000000000000000000000000 *
b11 ,
0&
#55000
01
b1010111 "
b1010111 0
b1010111 5
b1010111 9
1&
#60000
b100 :
b101 /
b10000000000000000000000000000000100000001000000000000000000000001000000000000000100000000000000000000000000000000000000000000000 *
b100 ,
0&
#65000
11
b101011 "
b101011 0
b101011 5
b101011 9
1&
#70000
b101 :
b110 /
b10000000000000000000000000000000100000001000000000000000000000001000000000000000100010000000000000000000000000000000000000000000 *
b101 ,
0&
#75000
01
b1010101 "
b1010101 0
b1010101 5
b1010101 9
1&
#80000
b110 :
b111 /
b10000000000000000000000000000000100000001010000000000000000000001000000000000000100010000000000000000000000000000000000000000000 *
b110 ,
0&
#85000
0!
b101010 "
b101010 0
b101010 5
b101010 9
1&
#90000
b111 :
b1000 /
b10000000000000000000000000000000100000001010000000000000000000001000000000000000100011000000000000000000000000000000000000000000 *
0&
#95000
11
1!
b10101 "
b10101 0
b10101 5
b10101 9
1&
#100000
b1000 :
b1001 /
b10000000000000000000000000000000100000001010000000000000000000001000000000000000100011000000000000000000001000000000000000000000 *
b111 ,
0&
#105000
0!
b1001010 "
b1001010 0
b1001010 5
b1001010 9
1&
#110000
b1001 :
b1010 /
b10000000000000000000000000000000100000001010000000000100000000001000000000000000100011000000000000000000001000000000000000000000 *
0&
#115000
01
1!
b1100101 "
b1100101 0
b1100101 5
b1100101 9
1&
#120000
b1010 :
b1011 /
b10000000000000000000000000100000100000001010000000000100000000001000000000000000100011000000000000000000001000000000000000000000 *
b1000 ,
0&
#125000
0!
b110010 "
b110010 0
b110010 5
b110010 9
1&
#130000
b1011 :
b1100 /
b10000000000000000000000000100000100000001010000000000100000000001000000000000100100011000000000000000000001000000000000000000000 *
0&
#135000
11
1!
b11001 "
b11001 0
b11001 5
b11001 9
1&
#140000
b1100 :
b1101 /
b10000000000000000000000000100000100000001010000000000100000000001000000000000100100011000000000000000010001000000000000000000000 *
b1001 ,
0&
#145000
0!
b1001100 "
b1001100 0
b1001100 5
b1001100 9
1&
#150000
b1101 :
b1110 /
b10000000000000000000000000100000100000001010000000010100000000001000000000000100100011000000000000000010001000000000000000000000 *
0&
#155000
b1100110 "
b1100110 0
b1100110 5
b1100110 9
1&
#160000
b1110 :
b1111 /
b10000000000000000000000001100000100000001010000000010100000000001000000000000100100011000000000000000010001000000000000000000000 *
0&
#165000
01
1!
b1110011 "
b1110011 0
b1110011 5
b1110011 9
1&
#170000
b1111 :
b10000 /
b10000000000010000000000001100000100000001010000000010100000000001000000000000100100011000000000000000010001000000000000000000000 *
b1010 ,
0&
#175000
11
b111001 "
b111001 0
b111001 5
b111001 9
1&
#180000
b10000 :
b10001 /
b10000000000010000000000001100000100000001010000000010100000000001000001000000100100011000000000000000010001000000000000000000000 *
b1011 ,
0&
#185000
0!
b1011100 "
b1011100 0
b1011100 5
b1011100 9
1&
#190000
b10001 :
b10010 /
b10000000000010000000000001100000100100001010000000010100000000001000001000000100100011000000000000000010001000000000000000000000 *
0&
#195000
b1101110 "
b1101110 0
b1101110 5
b1101110 9
1&
#200000
b10010 :
b10011 /
b10000000000010000100000001100000100100001010000000010100000000001000001000000100100011000000000000000010001000000000000000000000 *
0&
#205000
01
1!
b1110111 "
b1110111 0
b1110111 5
b1110111 9
1&
#210000
b10011 :
b10100 /
b10000000100010000100000001100000100100001010000000010100000000001000001000000100100011000000000000000010001000000000000000000000 *
b1100 ,
0&
#215000
11
b111011 "
b111011 0
b111011 5
b111011 9
1&
#220000
b10100 :
b10101 /
b10000000100010000100000001100000100100001010000000010100000000001000101000000100100011000000000000000010001000000000000000000000 *
b1101 ,
0&
#225000
01
b1011101 "
b1011101 0
b1011101 5
b1011101 9
1&
#230000
b10101 :
b10110 /
b10000000100010000100000001100000101100001010000000010100000000001000101000000100100011000000000000000010001000000000000000000000 *
b1110 ,
0&
#235000
0!
b101110 "
b101110 0
b101110 5
b101110 9
1&
#240000
b10110 :
b10111 /
b10000000100010000100000001100000101100001010000000010100000000001000101000000100110011000000000000000010001000000000000000000000 *
0&
#245000
11
1!
b10111 "
b10111 0
b10111 5
b10111 9
1&
#250000
b10111 :
b11000 /
b10000000100010000100000001100000101100001010000000010100000000001000101000000100110011000000000000000010101000000000000000000000 *
b1111 ,
0&
#255000
01
b1001011 "
b1001011 0
b1001011 5
b1001011 9
1&
#260000
b11000 :
b11001 /
b10000000100010000100000001100000101100001010000000011100000000001000101000000100110011000000000000000010101000000000000000000000 *
b10000 ,
0&
#265000
11
b100101 "
b100101 0
b100101 5
b100101 9
1&
#270000
b11001 :
b11010 /
b10000000100010000100000001100000101100001010000000011100000000001000101000000100110011000010000000000010101000000000000000000000 *
b10001 ,
0&
#275000
0!
b1010010 "
b1010010 0
b1010010 5
b1010010 9
1&
#280000
b11010 :
b11011 /
b10000000100010000100000001100000101100001010010000011100000000001000101000000100110011000010000000000010101000000000000000000000 *
0&
#285000
01
1!
b1101001 "
b1101001 0
b1101001 5
b1101001 9
1&
#290000
b11011 :
b11100 /
b10000000100010000100001001100000101100001010010000011100000000001000101000000100110011000010000000000010101000000000000000000000 *
b10010 ,
0&
#295000
0!
b110100 "
b110100 0
b110100 5
b110100 9
1&
#300000
b11100 :
b11101 /
b10000000100010000100001001100000101100001010010000011100000000001000101000010100110011000010000000000010101000000000000000000000 *
0&
#305000
b11010 "
b11010 0
b11010 5
b11010 9
1&
#310000
b11101 :
b11110 /
b10000000100010000100001001100000101100001010010000011100000000001000101000010100110011000010000000000110101000000000000000000000 *
0&
#315000
11
1!
b1101 "
b1101 0
b1101 5
b1101 9
1&
#320000
b11110 :
b11111 /
b10000000100010000100001001100000101100001010010000011100000000001000101000010100110011000010000000000110101000000010000000000000 *
b10011 ,
0&
#325000
0!
b1000110 "
b1000110 0
b1000110 5
b1000110 9
1&
#330000
b11111 :
b100000 /
b10000000100010000100001001100000101100001010010000011100010000001000101000010100110011000010000000000110101000000010000000000000 *
0&
#335000
01
1!
b1100011 "
b1100011 0
b1100011 5
b1100011 9
1&
#340000
b100000 :
b100001 /
b10000000100010000100001001101000101100001010010000011100010000001000101000010100110011000010000000000110101000000010000000000000 *
b10100 ,
0&
#345000
11
b110001 "
b110001 0
b110001 5
b110001 9
1&
#350000
b100001 :
b100010 /
b10000000100010000100001001101000101100001010010000011100010000001000101000010110110011000010000000000110101000000010000000000000 *
b10101 ,
0&
#355000
0!
b1011000 "
b1011000 0
b1011000 5
b1011000 9
1&
#360000
b100010 :
b100011 /
b10000000100010000100001001101000101100011010010000011100010000001000101000010110110011000010000000000110101000000010000000000000 *
0&
#365000
b1101100 "
b1101100 0
b1101100 5
b1101100 9
1&
#370000
b100011 :
b100100 /
b10000000100010000101001001101000101100011010010000011100010000001000101000010110110011000010000000000110101000000010000000000000 *
0&
#375000
b1110110 "
b1110110 0
b1110110 5
b1110110 9
1&
#380000
b100100 :
b100101 /
b10000000110010000101001001101000101100011010010000011100010000001000101000010110110011000010000000000110101000000010000000000000 *
0&
#385000
01
1!
b1111011 "
b1111011 0
b1111011 5
b1111011 9
1&
#390000
b100101 :
b100110 /
b10001000110010000101001001101000101100011010010000011100010000001000101000010110110011000010000000000110101000000010000000000000 *
b10110 ,
0&
#395000
11
b111101 "
b111101 0
b111101 5
b111101 9
1&
#400000
b100110 :
b100111 /
b10001000110010000101001001101000101100011010010000011100010000001010101000010110110011000010000000000110101000000010000000000000 *
b10111 ,
0&
#405000
0!
b1011110 "
b1011110 0
b1011110 5
b1011110 9
1&
#410000
b100111 :
b101000 /
b10001000110010000101001001101000111100011010010000011100010000001010101000010110110011000010000000000110101000000010000000000000 *
0&
#415000
01
1!
b1101111 "
b1101111 0
b1101111 5
b1101111 9
1&
#420000
b101000 :
b101001 /
b10001000110010001101001001101000111100011010010000011100010000001010101000010110110011000010000000000110101000000010000000000000 *
b11000 ,
0&
#425000
11
b110111 "
b110111 0
b110111 5
b110111 9
1&
#430000
b101001 :
b101010 /
b10001000110010001101001001101000111100011010010000011100010000001010101010010110110011000010000000000110101000000010000000000000 *
b11001 ,
0&
#435000
01
b1011011 "
b1011011 0
b1011011 5
b1011011 9
1&
#440000
b101010 :
b101011 /
b10001000110010001101001001101000111110011010010000011100010000001010101010010110110011000010000000000110101000000010000000000000 *
b11010 ,
0&
#445000
11
b101101 "
b101101 0
b101101 5
b101101 9
1&
#450000
b101011 :
b101100 /
b10001000110010001101001001101000111110011010010000011100010000001010101010010110111011000010000000000110101000000010000000000000 *
b11011 ,
0&
#455000
0!
b1010110 "
b1010110 0
b1010110 5
b1010110 9
1&
#460000
b101100 :
b101101 /
b10001000110010001101001001101000111110011110010000011100010000001010101010010110111011000010000000000110101000000010000000000000 *
0&
#465000
01
1!
b1101011 "
b1101011 0
b1101011 5
b1101011 9
1&
#470000
b101101 :
b101110 /
b10001000110010001101101001101000111110011110010000011100010000001010101010010110111011000010000000000110101000000010000000000000 *
b11100 ,
0&
#475000
11
b110101 "
b110101 0
b110101 5
b110101 9
1&
#480000
b101110 :
b101111 /
b10001000110010001101101001101000111110011110010000011100010000001010101010110110111011000010000000000110101000000010000000000000 *
b11101 ,
0&
#485000
0!
b1011010 "
b1011010 0
b1011010 5
b1011010 9
1&
#490000
b101111 :
b110000 /
b10001000110010001101101001101000111111011110010000011100010000001010101010110110111011000010000000000110101000000010000000000000 *
0&
#495000
01
1!
b1101101 "
b1101101 0
b1101101 5
b1101101 9
1&
#500000
b110000 :
b110001 /
b10001000110010001111101001101000111111011110010000011100010000001010101010110110111011000010000000000110101000000010000000000000 *
b11110 ,
0&
#505000
0!
b110110 "
b110110 0
b110110 5
b110110 9
1&
#510000
b110001 :
b110010 /
b10001000110010001111101001101000111111011110010000011100010000001010101011110110111011000010000000000110101000000010000000000000 *
0&
#515000
11
1!
b11011 "
b11011 0
b11011 5
b11011 9
1&
#520000
b110010 :
b110011 /
b10001000110010001111101001101000111111011110010000011100010000001010101011110110111011000010000000001110101000000010000000000000 *
b11111 ,
0&
#525000
01
b1001101 "
b1001101 0
b1001101 5
b1001101 9
1&
#530000
b110011 :
b110100 /
b10001000110010001111101001101000111111011110010000111100010000001010101011110110111011000010000000001110101000000010000000000000 *
b100000 ,
0&
#535000
0!
b100110 "
b100110 0
b100110 5
b100110 9
1&
#540000
b110100 :
b110101 /
b10001000110010001111101001101000111111011110010000111100010000001010101011110110111011000110000000001110101000000010000000000000 *
0&
#545000
11
1!
b10011 "
b10011 0
b10011 5
b10011 9
1&
#550000
b110101 :
b110110 /
b10001000110010001111101001101000111111011110010000111100010000001010101011110110111011000110000000001110101010000010000000000000 *
b100001 ,
0&
#555000
01
b1001001 "
b1001001 0
b1001001 5
b1001001 9
1&
#560000
b110110 :
b110111 /
b10001000110010001111101001101000111111011110010000111110010000001010101011110110111011000110000000001110101010000010000000000000 *
b100010 ,
0&
#565000
0!
b100100 "
b100100 0
b100100 5
b100100 9
1&
#570000
b110111 :
b111000 /
b10001000110010001111101001101000111111011110010000111110010000001010101011110110111011000111000000001110101010000010000000000000 *
0&
#575000
b10010 "
b10010 0
b10010 5
b10010 9
1&
#580000
b111000 :
b111001 /
b10001000110010001111101001101000111111011110010000111110010000001010101011110110111011000111000000001110101011000010000000000000 *
0&
#585000
11
1!
b1001 "
b1001 0
b1001 5
b1001 9
1&
#590000
b111001 :
b111010 /
b10001000110010001111101001101000111111011110010000111110010000001010101011110110111011000111000000001110101011000010001000000000 *
b100011 ,
0&
#595000
0!
b1000100 "
b1000100 0
b1000100 5
b1000100 9
1&
#600000
b111010 :
b111011 /
b10001000110010001111101001101000111111011110010000111110010100001010101011110110111011000111000000001110101011000010001000000000 *
0&
#605000
b1100010 "
b1100010 0
b1100010 5
b1100010 9
1&
#610000
b111011 :
b111100 /
b10001000110010001111101001101100111111011110010000111110010100001010101011110110111011000111000000001110101011000010001000000000 *
0&
#615000
01
1!
b1110001 "
b1110001 0
b1110001 5
b1110001 9
1&
#620000
b111100 :
b111101 /
b10001000110010101111101001101100111111011110010000111110010100001010101011110110111011000111000000001110101011000010001000000000 *
b100100 ,
0&
#625000
0!
b111000 "
b111000 0
b111000 5
b111000 9
1&
#630000
b111101 :
b111110 /
b10001000110010101111101001101100111111011110010000111110010100001010101111110110111011000111000000001110101011000010001000000000 *
0&
#635000
b11100 "
b11100 0
b11100 5
b11100 9
1&
#640000
b111110 :
b111111 /
b10001000110010101111101001101100111111011110010000111110010100001010101111110110111011000111000000011110101011000010001000000000 *
0&
#645000
b1110 "
b1110 0
b1110 5
b1110 9
1&
#650000
b111111 :
b1000000 /
b10001000110010101111101001101100111111011110010000111110010100001010101111110110111011000111000000011110101011000110001000000000 *
0&
#655000
11
1!
b111 "
b111 0
b111 5
b111 9
1&
#660000
b1000000 :
b1000001 /
b10001000110010101111101001101100111111011110010000111110010100001010101111110110111011000111000000011110101011000110001010000000 *
b100101 ,
0&
#665000
01
b1000011 "
b1000011 0
b1000011 5
b1000011 9
1&
#670000
b1000001 :
b1000010 /
b10001000110010101111101001101100111111011110010000111110010110001010101111110110111011000111000000011110101011000110001010000000 *
b100110 ,
0&
#675000
11
b100001 "
b100001 0
b100001 5
b100001 9
1&
#680000
b1000010 :
b1000011 /
b10001000110010101111101001101100111111011110010000111110010110001010101111110110111011000111001000011110101011000110001010000000 *
b100111 ,
0&
#685000
0!
b1010000 "
b1010000 0
b1010000 5
b1010000 9
1&
#690000
b1000011 :
b1000100 /
b10001000110010101111101001101100111111011110010100111110010110001010101111110110111011000111001000011110101011000110001010000000 *
0&
#695000
b1101000 "
b1101000 0
b1101000 5
b1101000 9
1&
#700000
b1000100 :
b1000101 /
b10001000110010101111101101101100111111011110010100111110010110001010101111110110111011000111001000011110101011000110001010000000 *
0&
#705000
b1110100 "
b1110100 0
b1110100 5
b1110100 9
1&
#710000
b1000101 :
b1000110 /
b10001000110110101111101101101100111111011110010100111110010110001010101111110110111011000111001000011110101011000110001010000000 *
0&
#715000
b1111010 "
b1111010 0
b1111010 5
b1111010 9
1&
#720000
b1000110 :
b1000111 /
b10001100110110101111101101101100111111011110010100111110010110001010101111110110111011000111001000011110101011000110001010000000 *
0&
#725000
01
1!
b1111101 "
b1111101 0
b1111101 5
b1111101 9
1&
#730000
b1000111 :
b1001000 /
b10101100110110101111101101101100111111011110010100111110010110001010101111110110111011000111001000011110101011000110001010000000 *
b101000 ,
0&
#735000
0!
b111110 "
b111110 0
b111110 5
b111110 9
1&
#740000
b1001000 :
b1001001 /
b10101100110110101111101101101100111111011110010100111110010110001110101111110110111011000111001000011110101011000110001010000000 *
0&
#745000
11
1!
b11111 "
b11111 0
b11111 5
b11111 9
1&
#750000
b1001001 :
b1001010 /
b10101100110110101111101101101100111111011110010100111110010110001110101111110110111011000111001010011110101011000110001010000000 *
b101001 ,
0&
#755000
01
b1001111 "
b1001111 0
b1001111 5
b1001111 9
1&
#760000
b1001010 :
b1001011 /
b10101100110110101111101101101100111111011110010110111110010110001110101111110110111011000111001010011110101011000110001010000000 *
b101010 ,
0&
#765000
11
b100111 "
b100111 0
b100111 5
b100111 9
1&
#770000
b1001011 :
b1001100 /
b10101100110110101111101101101100111111011110010110111110010110001110101111110110111011001111001010011110101011000110001010000000 *
b101011 ,
0&
#775000
01
b1010011 "
b1010011 0
b1010011 5
b1010011 9
1&
#780000
b1001100 :
b1001101 /
b10101100110110101111101101101100111111011110110110111110010110001110101111110110111011001111001010011110101011000110001010000000 *
b101100 ,
0&
#785000
11
b101001 "
b101001 0
b101001 5
b101001 9
1&
#790000
b1001101 :
b1001110 /
b10101100110110101111101101101100111111011110110110111110010110001110101111110110111011101111001010011110101011000110001010000000 *
b101101 ,
0&
#795000
0!
b1010100 "
b1010100 0
b1010100 5
b1010100 9
1&
#800000
b1001110 :
b1001111 /
b10101100110110101111101101101100111111011111110110111110010110001110101111110110111011101111001010011110101011000110001010000000 *
0&
#805000
b1101010 "
b1101010 0
b1101010 5
b1101010 9
1&
#810000
b1001111 :
b1010000 /
b10101100110110101111111101101100111111011111110110111110010110001110101111110110111011101111001010011110101011000110001010000000 *
0&
#815000
01
1!
b1110101 "
b1110101 0
b1110101 5
b1110101 9
1&
#820000
b1010000 :
b1010001 /
b10101100111110101111111101101100111111011111110110111110010110001110101111110110111011101111001010011110101011000110001010000000 *
b101110 ,
0&
#825000
0!
b111010 "
b111010 0
b111010 5
b111010 9
1&
#830000
b1010001 :
b1010010 /
b10101100111110101111111101101100111111011111110110111110010110001110111111110110111011101111001010011110101011000110001010000000 *
0&
#835000
11
1!
b11101 "
b11101 0
b11101 5
b11101 9
1&
#840000
b1010010 :
b1010011 /
b10101100111110101111111101101100111111011111110110111110010110001110111111110110111011101111001010111110101011000110001010000000 *
b101111 ,
0&
#845000
0!
b1001110 "
b1001110 0
b1001110 5
b1001110 9
1&
#850000
b1010011 :
b1010100 /
b10101100111110101111111101101100111111011111110111111110010110001110111111110110111011101111001010111110101011000110001010000000 *
0&
#855000
01
1!
b1100111 "
b1100111 0
b1100111 5
b1100111 9
1&
#860000
b1010100 :
b1010101 /
b10101100111110101111111111101100111111011111110111111110010110001110111111110110111011101111001010111110101011000110001010000000 *
b110000 ,
0&
#865000
11
b110011 "
b110011 0
b110011 5
b110011 9
1&
#870000
b1010101 :
b1010110 /
b10101100111110101111111111101100111111011111110111111110010110001110111111111110111011101111001010111110101011000110001010000000 *
b110001 ,
0&
#875000
01
b1011001 "
b1011001 0
b1011001 5
b1011001 9
1&
#880000
b1010110 :
b1010111 /
b10101100111110101111111111101100111111111111110111111110010110001110111111111110111011101111001010111110101011000110001010000000 *
b110010 ,
0&
#885000
0!
b101100 "
b101100 0
b101100 5
b101100 9
1&
#890000
b1010111 :
b1011000 /
b10101100111110101111111111101100111111111111110111111110010110001110111111111110111111101111001010111110101011000110001010000000 *
0&
#895000
b10110 "
b10110 0
b10110 5
b10110 9
1&
#900000
b1011000 :
b1011001 /
b10101100111110101111111111101100111111111111110111111110010110001110111111111110111111101111001010111110111011000110001010000000 *
0&
#905000
11
1!
b1011 "
b1011 0
b1011 5
b1011 9
1&
#910000
b1011001 :
b1011010 /
b10101100111110101111111111101100111111111111110111111110010110001110111111111110111111101111001010111110111011000110101010000000 *
b110011 ,
0&
#915000
01
b1000101 "
b1000101 0
b1000101 5
b1000101 9
1&
#920000
b1011010 :
b1011011 /
b10101100111110101111111111101100111111111111110111111110011110001110111111111110111111101111001010111110111011000110101010000000 *
b110100 ,
0&
#925000
0!
b100010 "
b100010 0
b100010 5
b100010 9
1&
#930000
b1011011 :
b1011100 /
b10101100111110101111111111101100111111111111110111111110011110001110111111111110111111101111011010111110111011000110101010000000 *
0&
#935000
11
1!
b10001 "
b10001 0
b10001 5
b10001 9
1&
#940000
b1011100 :
b1011101 /
b10101100111110101111111111101100111111111111110111111110011110001110111111111110111111101111011010111110111011100110101010000000 *
b110101 ,
0&
#945000
0!
b1001000 "
b1001000 0
b1001000 5
b1001000 9
1&
#950000
b1011101 :
b1011110 /
b10101100111110101111111111101100111111111111110111111111011110001110111111111110111111101111011010111110111011100110101010000000 *
0&
#955000
b1100100 "
b1100100 0
b1100100 5
b1100100 9
1&
#960000
b1011110 :
b1011111 /
b10101100111110101111111111111100111111111111110111111111011110001110111111111110111111101111011010111110111011100110101010000000 *
0&
#965000
b1110010 "
b1110010 0
b1110010 5
b1110010 9
1&
#970000
b1011111 :
b1100000 /
b10101100111111101111111111111100111111111111110111111111011110001110111111111110111111101111011010111110111011100110101010000000 *
0&
#975000
01
1!
b1111001 "
b1111001 0
b1111001 5
b1111001 9
1&
#980000
b1100000 :
b1100001 /
b10101110111111101111111111111100111111111111110111111111011110001110111111111110111111101111011010111110111011100110101010000000 *
b110110 ,
0&
#985000
0!
b111100 "
b111100 0
b111100 5
b111100 9
1&
#990000
b1100001 :
b1100010 /
b10101110111111101111111111111100111111111111110111111111011110001111111111111110111111101111011010111110111011100110101010000000 *
0&
#995000
b11110 "
b11110 0
b11110 5
b11110 9
1&
#1000000
b1100010 :
b1100011 /
b10101110111111101111111111111100111111111111110111111111011110001111111111111110111111101111011011111110111011100110101010000000 *
0&
#1005000
11
1!
b1111 "
b1111 0
b1111 5
b1111 9
1&
#1010000
b1100011 :
b1100100 /
b10101110111111101111111111111100111111111111110111111111011110001111111111111110111111101111011011111110111011101110101010000000 *
b110111 ,
0&
#1015000
01
b1000111 "
b1000111 0
b1000111 5
b1000111 9
1&
#1020000
b1100100 :
b1100101 /
b10101110111111101111111111111100111111111111110111111111111110001111111111111110111111101111011011111110111011101110101010000000 *
b111000 ,
0&
#1025000
11
b100011 "
b100011 0
b100011 5
b100011 9
1&
#1030000
b1100101 :
b1100110 /
b10101110111111101111111111111100111111111111110111111111111110001111111111111110111111101111111011111110111011101110101010000000 *
b111001 ,
0&
#1035000
01
b1010001 "
b1010001 0
b1010001 5
b1010001 9
1&
#1040000
b1100110 :
b1100111 /
b10101110111111101111111111111100111111111111111111111111111110001111111111111110111111101111111011111110111011101110101010000000 *
b111010 ,
0&
#1045000
0!
b101000 "
b101000 0
b101000 5
b101000 9
1&
#1050000
b1100111 :
b1101000 /
b10101110111111101111111111111100111111111111111111111111111110001111111111111110111111111111111011111110111011101110101010000000 *
0&
#1055000
b10100 "
b10100 0
b10100 5
b10100 9
1&
#1060000
b1101000 :
b1101001 /
b10101110111111101111111111111100111111111111111111111111111110001111111111111110111111111111111011111110111111101110101010000000 *
0&
#1065000
b1010 "
b1010 0
b1010 5
b1010 9
1&
#1070000
b1101001 :
b1101010 /
b10101110111111101111111111111100111111111111111111111111111110001111111111111110111111111111111011111110111111101110111010000000 *
0&
#1075000
11
1!
b101 "
b101 0
b101 5
b101 9
1&
#1080000
b1101010 :
b1101011 /
b10101110111111101111111111111100111111111111111111111111111110001111111111111110111111111111111011111110111111101110111010100000 *
b111011 ,
0&
#1085000
0!
b1000010 "
b1000010 0
b1000010 5
b1000010 9
1&
#1090000
b1101011 :
b1101100 /
b10101110111111101111111111111100111111111111111111111111111111001111111111111110111111111111111011111110111111101110111010100000 *
0&
#1095000
01
1!
b1100001 "
b1100001 0
b1100001 5
b1100001 9
1&
#1100000
b1101100 :
b1101101 /
b10101110111111101111111111111110111111111111111111111111111111001111111111111110111111111111111011111110111111101110111010100000 *
b111100 ,
0&
#1105000
0!
b110000 "
b110000 0
b110000 5
b110000 9
1&
#1110000
b1101101 :
b1101110 /
b10101110111111101111111111111110111111111111111111111111111111001111111111111111111111111111111011111110111111101110111010100000 *
0&
#1115000
b11000 "
b11000 0
b11000 5
b11000 9
1&
#1120000
b1101110 :
b1101111 /
b10101110111111101111111111111110111111111111111111111111111111001111111111111111111111111111111011111111111111101110111010100000 *
0&
#1125000
b1100 "
b1100 0
b1100 5
b1100 9
1&
#1130000
b1101111 :
b1110000 /
b10101110111111101111111111111110111111111111111111111111111111001111111111111111111111111111111011111111111111101111111010100000 *
0&
#1135000
b110 "
b110 0
b110 5
b110 9
1&
#1140000
b1110000 :
b1110001 /
b10101110111111101111111111111110111111111111111111111111111111001111111111111111111111111111111011111111111111101111111011100000 *
0&
#1145000
11
1!
b11 "
b11 0
b11 5
b11 9
1&
#1150000
b1110001 :
b1110010 /
b10101110111111101111111111111110111111111111111111111111111111001111111111111111111111111111111011111111111111101111111011101000 *
b111101 ,
0&
#1155000
01
b1000001 "
b1000001 0
b1000001 5
b1000001 9
1&
#1160000
b1110010 :
b1110011 /
b10101110111111101111111111111110111111111111111111111111111111101111111111111111111111111111111011111111111111101111111011101000 *
b111110 ,
0&
#1165000
0!
b100000 "
b100000 0
b100000 5
b100000 9
1&
#1170000
b1110011 :
b1110100 /
b10101110111111101111111111111110111111111111111111111111111111101111111111111111111111111111111111111111111111101111111011101000 *
0&
#1175000
b10000 "
b10000 0
b10000 5
b10000 9
1&
#1180000
b1110100 :
b1110101 /
b10101110111111101111111111111110111111111111111111111111111111101111111111111111111111111111111111111111111111111111111011101000 *
0&
#1185000
b1000 "
b1000 0
b1000 5
b1000 9
1&
#1190000
b1110101 :
b1110110 /
b10101110111111101111111111111110111111111111111111111111111111101111111111111111111111111111111111111111111111111111111111101000 *
0&
#1195000
b100 "
b100 0
b100 5
b100 9
1&
#1200000
b1110110 :
b1110111 /
b10101110111111101111111111111110111111111111111111111111111111101111111111111111111111111111111111111111111111111111111111111000 *
0&
#1205000
b10 "
b10 0
b10 5
b10 9
1&
#1210000
b1110111 :
b1111000 /
b10101110111111101111111111111110111111111111111111111111111111101111111111111111111111111111111111111111111111111111111111111100 *
0&
#1215000
11
1!
b1 "
b1 0
b1 5
b1 9
1&
#1220000
b1111000 :
b1111001 /
b10101110111111101111111111111110111111111111111111111111111111101111111111111111111111111111111111111111111111111111111111111110 *
b111111 ,
0&
#1225000
0!
b1000000 "
b1000000 0
b1000000 5
b1000000 9
1&
#1230000
b1111001 :
b1111010 /
b10101110111111101111111111111110111111111111111111111111111111111111111111111111111111111111111111111111111111111111111111111110 *
0&
#1235000
b1100000 "
b1100000 0
b1100000 5
b1100000 9
1&
#1240000
b1111010 :
b1111011 /
b10101110111111101111111111111111111111111111111111111111111111111111111111111111111111111111111111111111111111111111111111111110 *
0&
#1245000
b1110000 "
b1110000 0
b1110000 5
b1110000 9
1&
#1250000
b1111011 :
b1111100 /
b10101110111111111111111111111111111111111111111111111111111111111111111111111111111111111111111111111111111111111111111111111110 *
0&
#1255000
b1111000 "
b1111000 0
b1111000 5
b1111000 9
1&
#1260000
b1111100 :
b1111101 /
b10101111111111111111111111111111111111111111111111111111111111111111111111111111111111111111111111111111111111111111111111111110 *
0&
#1265000
b1111100 "
b1111100 0
b1111100 5
b1111100 9
1&
#1270000
b1111101 :
b1111110 /
b10111111111111111111111111111111111111111111111111111111111111111111111111111111111111111111111111111111111111111111111111111110 *
0&
#1275000
b1111110 "
b1111110 0
b1111110 5
b1111110 9
1&
#1280000
b1111110 :
b1111111 /
b11111111111111111111111111111111111111111111111111111111111111111111111111111111111111111111111111111111111111111111111111111110 *
0&
#1285000
01
1!
b1111111 "
b1111111 0
b1111111 5
b1111111 9
1&
#1290000
b101 -
b101 .
b1000000 >
b1000000 =
b1111111 :
b1000000 ,
0&
